8_FSM2/xrun.log
xrun: 23.09-s001: (c) Copyright 1995-2023 Cadence Design Systems, Inc.
TOOL:	xrun	23.09-s001: Started on Sep 14, 2024 at 05:13:36 EDT
xrun
	-Q
	-unbuffered
	-timescale 1ns/1ns
	-sysv
	-access +rw
	design.sv
	testbench.sv
	Top level design units:
		fsm_moore_tb
Loading snapshot worklib.fsm_moore_tb:sv .................... Done
xcelium> source /xcelium23.09/tools/xcelium/files/xmsimrc
xcelium> run
                   0 x=0, clk=0 , rst=1, z=x
                   5 x=0, clk=1 , rst=1, z=0
                   7 x=1, clk=1 , rst=1, z=0
                  10 x=1, clk=0 , rst=1, z=0
                  14 x=0, clk=0 , rst=1, z=0
                  15 x=0, clk=1 , rst=1, z=0
                  20 x=0, clk=0 , rst=1, z=0
                  21 x=1, clk=0 , rst=1, z=0
                  24 x=1, clk=0 , rst=0, z=0
                  25 x=1, clk=1 , rst=0, z=0
                  28 x=0, clk=1 , rst=0, z=0
                  30 x=0, clk=0 , rst=0, z=0
                  35 x=1, clk=1 , rst=0, z=1
                  40 x=1, clk=0 , rst=0, z=1
                  42 x=0, clk=0 , rst=0, z=1
                  45 x=0, clk=1 , rst=0, z=0
                  48 x=0, clk=1 , rst=1, z=0
                  49 x=1, clk=1 , rst=1, z=0
Simulation complete via $finish(1) at time 50 NS + 0
./testbench.sv:15   initial #50 $finish;
xcelium> exit
TOOL:	xrun	23.09-s001: Exiting on Sep 14, 2024 at 05:13:37 EDT  (total: 00:00:01)
